conceptType,conceptUri,skillType,reuseLevel,preferredLabel,altLabels,description,broaderConceptUri,broaderConceptPT
KnowledgeSkillCompetence,http://data.europa.eu/esco/skill/045f71e6-0699-4169-8a54-9c6b96f3174d,skill/competence,transversal,asesorar a otros,dar consejo a los demás,Ofrecer sugerencias sobre el mejor modo de proceder.,http://data.europa.eu/esco/skill/8f18f987-33e2-4228-9efb-65de25d03330 | http://data.europa.eu/esco/skill/S1.5.0,interacción social | prestar asesoramiento y consultoría
KnowledgeSkillCompetence,http://data.europa.eu/esco/skill/04fe962b-4017-4eb7-9139-7d69b6922bc9,skill/competence,transversal,utilizar una interfaz para aplicaciones específicas,,Comprender y utilizar interfaces específicas de una aplicación o un caso de uso.,http://data.europa.eu/esco/skill/4463a721-69f3-413d-8321-43e3af13a4f1 | http://data.europa.eu/esco/skill/S5.0.0,utilizar bases de datos | trabajar con ordenadores
KnowledgeSkillCompetence,http://data.europa.eu/esco/skill/09e28145-e205-4b7a-8b3b-5c4876396069,skill/competence,transversal,interactuar con otros,interactuar con los demás,"Interactuar con otras personas cara a cara en una amplia variedad de situaciones, utilizando estrategias adecuadas según el contexto y la finalidad.",http://data.europa.eu/esco/skill/8f18f987-33e2-4228-9efb-65de25d03330 | http://data.europa.eu/esco/skill/S1.8.0,interacción social | trabajar con otros
KnowledgeSkillCompetence,http://data.europa.eu/esco/skill/0ab5084c-cbd0-46d5-b61f-f1b8e9cc0ca0,skill/competence,transversal,esforzarse,,Mostrar el compromiso de hacer algo que es difícil y requiere un trabajo duro.,http://data.europa.eu/esco/skill/a90b12b6-248d-487f-be36-c44bd9a032e5 | http://data.europa.eu/esco/skill/A1.9.0,actitudes | esforzarse
KnowledgeSkillCompetence,http://data.europa.eu/esco/skill/0d715b0e-3026-40b9-aa9e-09f1d59054cf,skill/competence,transversal,realizar tareas prácticas mediante dispositivos inteligentes,,"Utilizar dispositivos conectados de forma autónoma a la red y a internet, como televisores inteligentes, robots y frigoríficos inteligentes, para la realización de tareas autónomas.",http://data.europa.eu/esco/skill/7e5147d1-60b1-4a68-804b-1f5cb0396b91 | http://data.europa.eu/esco/skill/S5.5.0,resolución de problemas con herramientas digitales | acceder a y analizar datos digitales
KnowledgeSkillCompetence,http://data.europa.eu/esco/skill/0f2eee6f-2203-4cc8-9d79-854d2d5d8131,skill/competence,transversal,utilizar técnicas interrogativas,,"Formular preguntas adecuadas para los fines que se persiguen, como la obtención de información precisa o el apoyo al proceso de aprendizaje.",http://data.europa.eu/esco/skill/S1.7.3 | http://data.europa.eu/esco/skill/8f18f987-33e2-4228-9efb-65de25d03330,escuchar y formular preguntas | interacción social
KnowledgeSkillCompetence,http://data.europa.eu/esco/skill/113b4428-0a31-4199-8496-070af7854b91,skill/competence,transversal,cumplir los compromisos,,Llevar a cabo las tareas asignadas con autodisciplina y de una manera fiable y orientada a la consecución de objetivos.,http://data.europa.eu/esco/skill/a90b12b6-248d-487f-be36-c44bd9a032e5 | http://data.europa.eu/esco/skill/A1.13.0,actitudes | cumplir los compromisos
KnowledgeSkillCompetence,http://data.europa.eu/esco/skill/14832d87-2f2f-4895-b290-e4760ebae42a,skill/competence,transversal,resolver problemas técnicos,solucionar problemas técnicos | arreglar problemas técnicos | detectar problemas técnicos,"Identificar problemas técnicos al accionar dispositivos y utilizar entornos digitales, y resuélvalos (desde la resolución de fallos hasta problemas más complejos).",http://data.europa.eu/esco/skill/S5.2.3 | http://data.europa.eu/esco/skill/7e5147d1-60b1-4a68-804b-1f5cb0396b91,resolver problemas informáticos | resolución de problemas con herramientas digitales
KnowledgeSkillCompetence,http://data.europa.eu/esco/skill/14d1e367-3efe-4ec5-86ae-eca48710ee4e,skill/competence,transversal,implantar políticas de seguridad de las TIC,implantar políticas de seguridad en el ámbito de la informática | implantar políticas de seguridad en el ámbito de las TIC,"Aplicar directrices relativas a la garantía del acceso y uso de ordenadores, redes, aplicaciones y datos informáticos que se gestionan.",http://data.europa.eu/esco/skill/df329d70-87b0-466b-a214-3431f36e2a5e | http://data.europa.eu/esco/skill/S5.2.2,proteger dispositivos de Tic | proteger dispositivos de tic
KnowledgeSkillCompetence,http://data.europa.eu/esco/skill/16a00c69-9c74-4c37-96d7-6301d285e5ce,skill/competence,transversal,participar en la ciudadanía a través de tecnologías digitales,intervenir en la vida ciudadana mediante tecnologías digitales | participar en la vida ciudadana utilizando tecnologías digitales,Participar en la sociedad mediante el uso de servicios digitales públicos y privados. Buscar oportunidades para autocapacitación y para la ciudadanía participativa a través de las tecnologías digitales adecuadas.,http://data.europa.eu/esco/skill/574257ea-7b64-4100-b7b6-e27c233fe143 | http://data.europa.eu/esco/skill/S5.6.1,comunicación y colaboración digitales | utilizar herramientas digitales para la colaboración y la productividad
KnowledgeSkillCompetence,http://data.europa.eu/esco/skill/1973c966-f236-40c9-b2d4-5d71a89019be,skill/competence,transversal,utilizar software de hojas de cálculo,,"Utilizar herramientas de software para crear y editar datos tabulares para realizar cálculos matemáticos, organizar datos e información, crear diagramas basados en datos y recuperarlos.",http://data.europa.eu/esco/skill/5fd5c985-eaaa-47aa-8314-62359c54505a | http://data.europa.eu/esco/skill/S5.5.2,desarrollar contenido digital | gestionar y analizar datos digitales
KnowledgeSkillCompetence,http://data.europa.eu/esco/skill/19ba11f3-9c99-41fd-a7c9-f77e6a026186,skill/competence,transversal,realizar cálculos profesionales,,Resolver problemas matemáticos para alcanzar los objetivos profesionales marcados.,http://data.europa.eu/esco/skill/S2.6.1 | http://data.europa.eu/esco/skill/b99e9027-8263-4630-a8f2-d7f400b4149e,realizar cálculos | conocimientos básicos de cálculo y matemáticas
KnowledgeSkillCompetence,http://data.europa.eu/esco/skill/1a4cc54f-1e53-442b-a6d2-1682dc8ef8f9,skill/competence,transversal,utilizar las tecnologías digitales con creatividad,,Utilizar herramientas y tecnologías digitales para crear conocimientos e innovar procesos y productos. Participar individual y colectivamente en el proceso cognitivo con el fin de comprender y resolver los problemas conceptuales y las situaciones problemáticas en entornos digitales.,http://data.europa.eu/esco/skill/7e5147d1-60b1-4a68-804b-1f5cb0396b91 | http://data.europa.eu/esco/skill/S5.6.1,resolución de problemas con herramientas digitales | utilizar herramientas digitales para la colaboración y la productividad
KnowledgeSkillCompetence,http://data.europa.eu/esco/skill/1d1fedcb-4995-44ac-90f5-f31a157ce512,skill/competence,transversal,controlar la frustración,,Mantener la calma y reaccionar de forma constructiva ante su ira o la de otros al enfrentarse a obstáculos o reclamaciones.,http://data.europa.eu/esco/skill/A1.10.0 | http://data.europa.eu/esco/skill/a90b12b6-248d-487f-be36-c44bd9a032e5,controlar la frustración | actitudes
KnowledgeSkillCompetence,http://data.europa.eu/esco/skill/1d6c7de4-350e-4868-a47b-333b4b0d9650,skill/competence,transversal,"evaluar datos, información y contenido digitales","analizar datos, información y contenido digitales | evaluar datos, información y contenidos digitales | examinar datos, información y contenido digitales | evaluar datos, información y contenido electrónicos","Analizar, comparar y evaluar críticamente la credibilidad y fiabilidad de las fuentes de datos, la información y el contenido digitales. Analizar, interpretar y evaluar críticamente los datos, la información y el contenido digitales.",http://data.europa.eu/esco/skill/S2.7.0 | http://data.europa.eu/esco/skill/629685b8-5f9e-4522-8cff-b3e2c4ec625a,analizar y evaluar información y datos | tratamiento digital de los datos
KnowledgeSkillCompetence,http://data.europa.eu/esco/skill/1da808a1-419f-4e7c-b714-8287f1842546,skill/competence,transversal,respaldar el plan empresarial,,Actuar en el marco de su propia función profesional para avanzar en los objetivos y la visión de la organización.,http://data.europa.eu/esco/skill/d4fd1061-eb6a-46d6-9aed-374cb0a80a9a | http://data.europa.eu/esco/skill/S3.3.3,entorno de trabajo | cumplir las directrices jurídicas y organizativas
KnowledgeSkillCompetence,http://data.europa.eu/esco/skill/20ba084f-129c-4c5e-b39f-539913e0acc4,skill/competence,transversal,manejar dispositivos digitales portátiles,manejar dispositivos digitales de mano,Utilizar dispositivos digitales que puedan llevarse en la mano y que no requieran acciones adicionales aparte del tacto.,http://data.europa.eu/esco/skill/S5.6.1 | http://data.europa.eu/esco/skill/7e5147d1-60b1-4a68-804b-1f5cb0396b91,utilizar herramientas digitales para la colaboración y la productividad | resolución de problemas con herramientas digitales
KnowledgeSkillCompetence,http://data.europa.eu/esco/skill/21d2f96d-35f7-4e3f-9745-c533d2dd6e97,knowledge,transversal,programación informática,,"Las técnicas y principios de desarrollo de software, como análisis, algoritmos, codificación, ensayos y compilación de modelos de programación (por ejemplo, programación orientada a objetos, programación funcional) y de lenguajes de programación.",http://data.europa.eu/esco/skill/f5369f2f-e52b-43d8-8d31-79a6c11188d8 | http://data.europa.eu/esco/isced-f/0613,creación de contenidos digitales | desarrollo y análisis de software y aplicaciones
KnowledgeSkillCompetence,http://data.europa.eu/esco/skill/22b7d99d-252f-4572-8e3c-438ea87607eb,skill/competence,transversal,demostrar entusiasmo,,"Hacer alarde de un gran esfuerzo, motivado por un interés o disfrute en el trabajo propiamente dicho, en ausencia de presiones externas.",http://data.europa.eu/esco/skill/A1.7.0 | http://data.europa.eu/esco/skill/a90b12b6-248d-487f-be36-c44bd9a032e5,mostrar entusiasmo | actitudes
KnowledgeSkillCompetence,http://data.europa.eu/esco/skill/234aeb8d-56c3-4531-9193-1c5e6a8d16cb,skill/competence,transversal,utilizar software para presentaciones,,"Utilizar herramientas informáticas para crear presentaciones digitales que combinen diversos elementos, como gráficos, imágenes, texto y otros.",http://data.europa.eu/esco/skill/5fd5c985-eaaa-47aa-8314-62359c54505a | http://data.europa.eu/esco/skill/S5.6.2,"desarrollar contenido digital | utilizar software de tratamiento de textos, edición y presentación"
KnowledgeSkillCompetence,http://data.europa.eu/esco/skill/236526e2-d5a8-436b-91d1-47e5d431e7ea,skill/competence,transversal,aplicar normas de calidad,,"Seguir procedimientos que eviten errores en la creación y la entrega de un producto, una solución o un servicio a los clientes.",http://data.europa.eu/esco/skill/d4fd1061-eb6a-46d6-9aed-374cb0a80a9a | http://data.europa.eu/esco/skill/A1.12.2,
KnowledgeSkillCompetence,http://data.europa.eu/esco/skill/238343b1-7b51-42b3-a9ed-cf24d3a236e7,skill/competence,transversal,identificar carencias en competencias digitales,reconocer las carencias en competencias digitales | detectar las deficiencias en competencias digitales | detectar las lagunas en competencias digitales,Comprender la necesidad de mejorar o actualizar la competencia digital propia. Ser capaz de apoyar a otros con el desarrollo de sus competencias digitales. Buscar oportunidades de autodesarrollo y mantenerse al día con la evolución digital.,http://data.europa.eu/esco/skill/7e5147d1-60b1-4a68-804b-1f5cb0396b91 | http://data.europa.eu/esco/skill/S2.8.0,"resolución de problemas con herramientas digitales | realizar seguimiento, inspección y ensayos"
KnowledgeSkillCompetence,http://data.europa.eu/esco/skill/2913deed-2560-4c1b-872c-f83ae6c93021,skill/competence,sector-specific,usar Yahoo! Buscar,,"Identificar la información digital a través del motor de búsqueda Yahoo!, considerando su pertinencia y su finalidad. 
 ",http://data.europa.eu/esco/skill/698be2d3-8768-422d-a2d3-1cb701816089 | http://data.europa.eu/esco/skill/S5.5.1,"buscar información en línea | navegar, buscar y filtrar datos digitales"
KnowledgeSkillCompetence,http://data.europa.eu/esco/skill/2b34a99f-9813-4c91-9509-b6b9b8c3132e,skill/competence,transversal,colaborar utilizando tecnologías digitales,colaborar mediante tecnologías digitales,"Utilizar herramientas y tecnologías digitales para los procesos de colaboración, y para la construcción conjunta y la creación conjunta de recursos y conocimientos.",http://data.europa.eu/esco/skill/S5.6.1 | http://data.europa.eu/esco/skill/574257ea-7b64-4100-b7b6-e27c233fe143,utilizar herramientas digitales para la colaboración y la productividad | comunicación y colaboración digitales
KnowledgeSkillCompetence,http://data.europa.eu/esco/skill/2e227d5d-649b-48dc-99ca-2389bbc1140f,skill/competence,transversal,apoyar la igualdad de género,apoyar la igualdad entre mujeres y hombres | apoyar la igualdad entre hombres y mujeres,"Esfuércese por obtener un beneficio equivalente para ambos sexos, evaluando las repercusiones para las mujeres y los hombres de cualquier acción prevista, incluida la legislación, las políticas o los programas, en todos los ámbitos y a todos los niveles en el lugar de trabajo.",http://data.europa.eu/esco/skill/d4fd1061-eb6a-46d6-9aed-374cb0a80a9a | http://data.europa.eu/esco/skill/S3.3.3,entorno de trabajo | cumplir las directrices jurídicas y organizativas
KnowledgeSkillCompetence,http://data.europa.eu/esco/skill/33a82b83-c838-4889-ae62-fae1317481eb,skill/competence,transversal,proteger datos personales y la privacidad,proteger los datos y la intimidad personales,"Proteger los datos personales y la privacidad en entornos digitales. Comprender cómo utilizar y compartir información personalmente identificable, protegiéndose al mismo tiempo a sí mismo y a terceros frente a daños. Entender que los servicios digitales utilizan una «Política de privacidad» para informar sobre cómo se utilizan los datos personales.",http://data.europa.eu/esco/skill/426ceaba-6867-481c-bb6b-aee3933da7d2 | http://data.europa.eu/esco/skill/S3.3.6,seguridad de las tecnologías de la información y de las comunicaciones | proteger la privacidad y los datos personales
KnowledgeSkillCompetence,http://data.europa.eu/esco/skill/3481d400-2eaa-4ab3-bb06-5f45b4380052,skill/competence,transversal,utilizar el lenguaje corporal,,"Utilizar y comprender el lenguaje, los gestos y otras señales paralingüísticas.",http://data.europa.eu/esco/skill/L1 | http://data.europa.eu/esco/skill/8f18f987-33e2-4228-9efb-65de25d03330,Lenguas | interacción social
KnowledgeSkillCompetence,http://data.europa.eu/esco/skill/35ebe444-9ece-4fbc-a55d-e99ea37267ae,skill/competence,transversal,gestionar la calidad,,"Buscar la excelencia en los procesos, productos y actividades en el lugar de trabajo.",http://data.europa.eu/esco/skill/A1.12.0 | http://data.europa.eu/esco/skill/a90b12b6-248d-487f-be36-c44bd9a032e5,gestionar la calidad | actitudes
KnowledgeSkillCompetence,http://data.europa.eu/esco/skill/35f1be97-06c4-4367-a067-7e0e94f2fa70,skill/competence,transversal,utilizar sistemas operativos de dispositivos digitales,,Utilizar las funciones y herramientas del sistema operativo para acceder a los recursos y ejecutar aplicaciones.,http://data.europa.eu/esco/skill/S5.0.0 | http://data.europa.eu/esco/skill/42fcf80d-7b45-40f3-bd2f-5411c4c0dfa0,trabajar con ordenadores | detectar las necesidades y las respuestas tecnológicas
KnowledgeSkillCompetence,http://data.europa.eu/esco/skill/40001d93-8937-4859-89d5-2dca53290ff4,skill/competence,transversal,"utilizar tecnologías digitales para compartir datos, información y contenido digitales","utilizar tecnologías digitales para compartir datos, información y contenidos digitales","Compartir datos, información y contenidos digitales con otras personas a través de las tecnologías digitales adecuadas. Actuar como intermediario, conocer las referencias y las prácticas de atribución.",http://data.europa.eu/esco/skill/S5.6.1 | http://data.europa.eu/esco/skill/574257ea-7b64-4100-b7b6-e27c233fe143,utilizar herramientas digitales para la colaboración y la productividad | comunicación y colaboración digitales
KnowledgeSkillCompetence,http://data.europa.eu/esco/skill/429062f1-a958-43ea-83dd-4e1af078c156,skill/competence,transversal,mostrar curiosidad,,"Mostrar un gran interés por la novedad, la apertura a la experiencia, encontrar asuntos y temas fascinantes, explorar y descubrir nuevos ámbitos.",http://data.europa.eu/esco/skill/A1.6.0 | http://data.europa.eu/esco/skill/a90b12b6-248d-487f-be36-c44bd9a032e5,mostrar curiosidad | actitudes
KnowledgeSkillCompetence,http://data.europa.eu/esco/skill/42fcf80d-7b45-40f3-bd2f-5411c4c0dfa0,skill/competence,transversal,detectar las necesidades y las respuestas tecnológicas,evaluar las necesidades y las respuestas tecnológicas,"Evaluar las necesidades e identificar, evaluar, seleccionar y utilizar las herramientas digitales y las posibles respuestas tecnológicas para solventarlas. Ajustar y personalizar los entornos digitales a las necesidades personales (p. ej., accesibilidad).",http://data.europa.eu/esco/skill/S1.9.1 | http://data.europa.eu/esco/skill/7e5147d1-60b1-4a68-804b-1f5cb0396b91,desarrollar soluciones | resolución de problemas con herramientas digitales
KnowledgeSkillCompetence,http://data.europa.eu/esco/skill/4463a721-69f3-413d-8321-43e3af13a4f1,skill/competence,transversal,utilizar bases de datos,,"Utilizar herramientas de software para gestionar y organizar datos en un entorno estructurado que consta de atributos, tablas y relaciones para consultar y modificar los datos almacenados.",http://data.europa.eu/esco/skill/S5.5.2 | http://data.europa.eu/esco/skill/4d97e3c3-f335-47cc-a4ee-0d779fd42222,"gestionar y analizar datos digitales | gestionar datos, información y contenido digitales"
KnowledgeSkillCompetence,http://data.europa.eu/esco/skill/49de9958-2aa4-4eef-a89d-fe5d5bcd28c4,skill/competence,transversal,adaptarse al cambio,,Alterar la actitud o el comportamiento para albergar modificaciones en el lugar de trabajo.,http://data.europa.eu/esco/skill/A1.1.0 | http://data.europa.eu/esco/skill/a90b12b6-248d-487f-be36-c44bd9a032e5,adaptarse al cambio | actitudes
KnowledgeSkillCompetence,http://data.europa.eu/esco/skill/4d97e3c3-f335-47cc-a4ee-0d779fd42222,skill/competence,transversal,"gestionar datos, información y contenido digitales","gestionar datos, información y contenidos electrónicos | gestionar datos, información y contenidos digitales | gestionar datos, información y contenido electrónicos","Organizar, almacenar y recuperar datos, información y contenido en entornos digitales. Organizarlos y tratarlos en un entorno estructurado.",http://data.europa.eu/esco/skill/S2.3.0 | http://data.europa.eu/esco/skill/629685b8-5f9e-4522-8cff-b3e2c4ec625a,gestionar información | tratamiento digital de los datos
KnowledgeSkillCompetence,http://data.europa.eu/esco/skill/4e2ce047-1912-468f-8c04-ab7374c4a761,skill/competence,transversal,apoyar la diversidad cultural,,Desempeñar un papel activo en la promoción de la justicia social y la confrontación con la discriminación en el lugar de trabajo sobre la base de la identidad cultural.,http://data.europa.eu/esco/skill/d4fd1061-eb6a-46d6-9aed-374cb0a80a9a | http://data.europa.eu/esco/skill/S3.3.3,entorno de trabajo | cumplir las directrices jurídicas y organizativas
KnowledgeSkillCompetence,http://data.europa.eu/esco/skill/57231a22-4da7-49c8-97b8-75672feadf1e,skill/competence,transversal,gestionar datos cuantitativos,,"Recopilar, procesar y presentar datos cuantitativos.",http://data.europa.eu/esco/skill/b99e9027-8263-4630-a8f2-d7f400b4149e | http://data.europa.eu/esco/skill/S5.5.2,conocimientos básicos de cálculo y matemáticas | gestionar y analizar datos digitales
KnowledgeSkillCompetence,http://data.europa.eu/esco/skill/580660a6-5d3a-421d-a54f-d85b706c2b2f,skill/competence,transversal,utilizar herramientas en línea para colaborar,,"Usar recursos en línea, como herramientas de reunión en línea, conferencias VoIP, edición simultánea de archivos, para crear, compartir contenido y colaborar desde ubicaciones remotas.",http://data.europa.eu/esco/skill/574257ea-7b64-4100-b7b6-e27c233fe143 | http://data.europa.eu/esco/skill/S5.6.1,comunicación y colaboración digitales | utilizar herramientas digitales para la colaboración y la productividad
KnowledgeSkillCompetence,http://data.europa.eu/esco/skill/5af49836-2269-46d9-87b9-0d3140c6c22e,skill/competence,transversal,integrar y reelaborar contenido digital,integrar y modificar contenido digital | incorporar y reelaborar contenido digital | integrar y reelaborar contenidos digitales | añadir y reelaborar contenido digital,"Modificar, perfeccionar, mejorar e integrar información y contenido en un conjunto de conocimientos existente para crear contenido y conocimiento nuevo, original y pertinente.",http://data.europa.eu/esco/skill/S5.6.1 | http://data.europa.eu/esco/skill/f5369f2f-e52b-43d8-8d31-79a6c11188d8,utilizar herramientas digitales para la colaboración y la productividad | creación de contenidos digitales
KnowledgeSkillCompetence,http://data.europa.eu/esco/skill/5c59dac1-0547-4068-b43c-ac59f1344448,skill/competence,transversal,tener buenos modales,,"Interactar con otras personas de acuerdo con las costumbres y expectativas normales del comportamiento social contemporáneo, adaptadas al contexto.",http://data.europa.eu/esco/skill/25a26ff6-af18-40b0-b2e2-cb58471015eb | http://data.europa.eu/esco/skill/A2.2.0,valores | tener buenos modales
KnowledgeSkillCompetence,http://data.europa.eu/esco/skill/5cd1930c-278d-4929-b413-27352f5b3687,skill/competence,transversal,hacer frente a la incertidumbre,,Tolerar y trabajar de manera constructiva en situaciones inesperadas e imprevisibles.,http://data.europa.eu/esco/skill/a90b12b6-248d-487f-be36-c44bd9a032e5 | http://data.europa.eu/esco/skill/A1.5.0,actitudes | hacer frente a la incertidumbre
KnowledgeSkillCompetence,http://data.europa.eu/esco/skill/5f1dd9f6-dcb4-4384-88c9-f9f6a75305c9,skill/competence,transversal,utilizar instrumentos de comunicación en línea,,"Utilizar herramientas digitales que permitan diversas formas de comunicación a través de Internet, como el correo electrónico, la mensajería instantánea, el Protocolo de Voz sobre Internet, las redes sociales, siguiendo al mismo tiempo las reglas del protocolo y protegiendo su reputación e identidad digital.",http://data.europa.eu/esco/skill/S5.6.1 | http://data.europa.eu/esco/skill/574257ea-7b64-4100-b7b6-e27c233fe143,utilizar herramientas digitales para la colaboración y la productividad | comunicación y colaboración digitales
KnowledgeSkillCompetence,http://data.europa.eu/esco/skill/5fd5c985-eaaa-47aa-8314-62359c54505a,skill/competence,transversal,desarrollar contenido digital,desarrollar contenido digital | crear contenido digital | concebir contenidos digitales | elaborar contenidos digitales | crear contenidos digitales,"Crear y editar contenido digital en diferentes formatos, exprésese a través de los medios digitales.",http://data.europa.eu/esco/skill/f5369f2f-e52b-43d8-8d31-79a6c11188d8 | http://data.europa.eu/esco/skill/S5.6.1,creación de contenidos digitales | utilizar herramientas digitales para la colaboración y la productividad
KnowledgeSkillCompetence,http://data.europa.eu/esco/skill/609a8ac1-9d29-4237-9886-596dbbe7ca8a,skill/competence,transversal,hacer presentaciones en público,dirigirse a una audiencia | exponer oralmente un tema | dirigirse a un público | hablar en público,"Hablar de manera estructurada, deliberada y cara a cara a un grupo de oyentes para informarlos, influirlos o entretenerlos.",http://data.europa.eu/esco/skill/8f18f987-33e2-4228-9efb-65de25d03330 | http://data.europa.eu/esco/skill/S1.4.1,interacción social | presentar información general
KnowledgeSkillCompetence,http://data.europa.eu/esco/skill/60c78287-22eb-4103-9c8c-28deaa460da0,skill/competence,transversal,trabajar en equipos,colaborar con los miembros del equipo | trabajar en grupo,Trabajar con confianza dentro de un grupo en el que cada miembro cumpla con su parte al servicio de la totalidad.,http://data.europa.eu/esco/skill/8f18f987-33e2-4228-9efb-65de25d03330 | http://data.europa.eu/esco/skill/S1.8.1,interacción social | trabajar en equipo
KnowledgeSkillCompetence,http://data.europa.eu/esco/skill/611ed16b-99bf-4840-9cab-f55d1d286e0a,skill/competence,transversal,almacenar datos y sistemas digitales,,"Utilizar herramientas de software para archivar datos, copiándolos y realizando copias de seguridad, con el fin de garantizar su integridad y evitar la pérdida de datos.",http://data.europa.eu/esco/skill/629685b8-5f9e-4522-8cff-b3e2c4ec625a | http://data.europa.eu/esco/skill/S5.5.2 | http://data.europa.eu/esco/skill/4d97e3c3-f335-47cc-a4ee-0d779fd42222,"tratamiento digital de los datos | gestionar y analizar datos digitales | gestionar datos, información y contenido digitales"
KnowledgeSkillCompetence,http://data.europa.eu/esco/skill/6816e28f-a48d-41c7-8492-309f50c049fc,skill/competence,transversal,respetar las normas de higiene en el ámbito laboral,,"Cumplir la legislación, la reglamentación y los códigos de buenas prácticas industriales en materia de higiene en el lugar de trabajo.",http://data.europa.eu/esco/skill/6e1ac650-52a8-40b8-b1fc-fc5e582882f3 | http://data.europa.eu/esco/skill/S3.3.1,salud y seguridad | cumplir los procedimientos de salud y seguridad
KnowledgeSkillCompetence,http://data.europa.eu/esco/skill/698be2d3-8768-422d-a2d3-1cb701816089,skill/competence,transversal,buscar información en línea,buscar información en internet,"Identificar información digital a través de motores de búsqueda, juzgando su pertinencia y finalidad.",http://data.europa.eu/esco/skill/e439742d-558d-4f52-885e-afdc740b48cf | http://data.europa.eu/esco/skill/S5.5.1,"navegar, buscar y filtrar datos, información y contenido digitales | navegar, buscar y filtrar datos digitales"
KnowledgeSkillCompetence,http://data.europa.eu/esco/skill/699e7c26-6502-4e78-a823-3656ff5a5b8b,skill/competence,transversal,instruir a otras personas,,"Guiar o enseñar a otras personas, proporcionándoles conocimientos y apoyo pertinentes.",http://data.europa.eu/esco/skill/8f18f987-33e2-4228-9efb-65de25d03330 | http://data.europa.eu/esco/skill/S1.3.0,interacción social | enseñar y formar
KnowledgeSkillCompetence,http://data.europa.eu/esco/skill/6a12273a-d498-4b09-a235-365ce7474496,skill/competence,transversal,utilizar el buscador de Google,utilizar Google,"Identificar la información digital a través del motor de búsqueda de Google, considerando su pertinencia y su finalidad.",http://data.europa.eu/esco/skill/698be2d3-8768-422d-a2d3-1cb701816089 | http://data.europa.eu/esco/skill/S5.5.1,"buscar información en línea | navegar, buscar y filtrar datos digitales"
KnowledgeSkillCompetence,http://data.europa.eu/esco/skill/6e04cc9f-d409-49f0-9224-d9cb32e83631,skill/competence,transversal,convencer a los demás,convencer a otros | convencer a otras personas | persuadir a los demás,"Cambiar las creencias, actitudes, intenciones, motivaciones o comportamientos de una persona con la ayuda de argumentos razonados.",http://data.europa.eu/esco/skill/S1.6.0 | http://data.europa.eu/esco/skill/8f18f987-33e2-4228-9efb-65de25d03330,"promocionar, vender y comprar | interacción social"
KnowledgeSkillCompetence,http://data.europa.eu/esco/skill/6efef9df-ac86-45ca-8b1b-a8178ef17b5c,skill/competence,transversal,resolver problemas de ubicación y navegación mediante el uso de herramientas GPS,,"Utilizar aplicaciones y dispositivos que proporcionen a los usuarios una evaluación precisa de su ubicación mediante sistemas de satélites, como los sistemas de navegación.",http://data.europa.eu/esco/skill/S5.6.1 | http://data.europa.eu/esco/skill/7e5147d1-60b1-4a68-804b-1f5cb0396b91,utilizar herramientas digitales para la colaboración y la productividad | resolución de problemas con herramientas digitales
KnowledgeSkillCompetence,http://data.europa.eu/esco/skill/75d8e5d9-bef3-418b-9011-01bff9f27207,skill/competence,transversal,dirigir a otras personas,dirigir a los demás,"Guiar y orientar a los demás hacia un objetivo común, a menudo en grupo o equipo.",http://data.europa.eu/esco/skill/S4.5.0 | http://data.europa.eu/esco/skill/8f18f987-33e2-4228-9efb-65de25d03330,guiar y motivar | interacción social
KnowledgeSkillCompetence,http://data.europa.eu/esco/skill/75f839c2-fd9a-4ad3-8921-6e734608568d,skill/competence,transversal,utilizar lenguajes de consulta,utilizar lenguajes de búsqueda,Recuperar información de una base de datos o sistema de información utilizando lenguajes informáticos diseñados para la recuperación de datos.,http://data.europa.eu/esco/skill/4463a721-69f3-413d-8321-43e3af13a4f1 | http://data.europa.eu/esco/skill/S5.1.0,utilizar bases de datos | programar sistemas informáticos
KnowledgeSkillCompetence,http://data.europa.eu/esco/skill/7954861c-86d4-4529-afbb-2c23dab9ac74,skill/competence,transversal,negociar un acuerdo,alcanzar un acuerdo | lograr un acuerdo,Comunicarse con otras personas con la intención de llegar a un entendimiento común o para resolver una diferencia sin perder de vista las intenciones u objetivos propios o de la otra parte.,http://data.europa.eu/esco/skill/8f18f987-33e2-4228-9efb-65de25d03330 | http://data.europa.eu/esco/skill/S1.1.2,interacción social | encargarse de la mediación y la resolución de litigios
KnowledgeSkillCompetence,http://data.europa.eu/esco/skill/7a147904-22b3-498a-b4d9-7bceeb86b45d,skill/competence,transversal,hacer frente a la presión,soportar la presión,"Gestionar los retos, trastornos y cambios y recuperarse de los problemas y adversidades.",http://data.europa.eu/esco/skill/a90b12b6-248d-487f-be36-c44bd9a032e5 | http://data.europa.eu/esco/skill/A1.4.0,actitudes | hacer frente a la presión
KnowledgeSkillCompetence,http://data.europa.eu/esco/skill/7a8fb784-67fa-41e9-a75c-6b491d91f800,skill/competence,transversal,elaborar estrategias para resolver problemas,,"Elaborar objetivos y planes específicos para priorizar, organizar y realizar el trabajo.",http://data.europa.eu/esco/skill/S4.1.0 | http://data.europa.eu/esco/skill/a06a5a3f-07a9-40b3-bb7b-d93a960b1be5,desarrollar objetivos y estrategias | pensamiento
KnowledgeSkillCompetence,http://data.europa.eu/esco/skill/7a93e22f-54d8-4bf0-9213-d711f6601b49,skill/competence,transversal,trabajar eficientemente,trabajar con eficiencia,"Alcanzar objetivos consumiendo un tiempo, un esfuerzo o un coste mínimo.",http://data.europa.eu/esco/skill/A1.15.0 | http://data.europa.eu/esco/skill/a90b12b6-248d-487f-be36-c44bd9a032e5,trabajar eficientemente | actitudes
KnowledgeSkillCompetence,http://data.europa.eu/esco/skill/7dd94ad3-13d6-43fe-8b94-51fcbf67ced9,skill/competence,transversal,evaluar la información,,Elaborar y defender decisiones basadas en pruebas internas y criterios externos.,http://data.europa.eu/esco/skill/S2.7.0 | http://data.europa.eu/esco/skill/a06a5a3f-07a9-40b3-bb7b-d93a960b1be5,analizar y evaluar información y datos | pensamiento
KnowledgeSkillCompetence,http://data.europa.eu/esco/skill/80967a8e-0477-4c5e-8550-4af6e5157626,skill/competence,transversal,trabajar con la forma y el espacio,,"Manipular, organizar e interpretar información espacial.",http://data.europa.eu/esco/skill/S2.7.0 | http://data.europa.eu/esco/skill/b99e9027-8263-4630-a8f2-d7f400b4149e,analizar y evaluar información y datos | conocimientos básicos de cálculo y matemáticas
KnowledgeSkillCompetence,http://data.europa.eu/esco/skill/81633a44-f1db-4a01-a940-804c6905e330,skill/competence,transversal,utilizar programas informáticos de tratamiento de texto,,"Utilizar aplicaciones informáticas para componer, editar, formatear e imprimir cualquier tipo de material escrito.",http://data.europa.eu/esco/skill/S5.6.2 | http://data.europa.eu/esco/skill/5fd5c985-eaaa-47aa-8314-62359c54505a,"utilizar software de tratamiento de textos, edición y presentación | desarrollar contenido digital"
KnowledgeSkillCompetence,http://data.europa.eu/esco/skill/82de2df7-0d6c-42b1-94ac-b3e9a029e917,skill/competence,transversal,utilizar herramientas para realizar copias de seguridad y recuperar datos,,"Utilizar herramientas que permitan a los usuarios copiar y archivar programas informáticos, configuraciones y datos, y recuperarlos en caso de pérdida.",http://data.europa.eu/esco/skill/S5.2.2 | http://data.europa.eu/esco/skill/df329d70-87b0-466b-a214-3431f36e2a5e,proteger dispositivos de tic | proteger dispositivos de Tic
KnowledgeSkillCompetence,http://data.europa.eu/esco/skill/8359bd04-d2cb-4757-af1f-39a921df9efe,skill/competence,transversal,eliminar virus o programas informáticos malintencionados de un ordenador,eliminar virus o programas informáticos malintencionados | eliminar virus o programas informáticos malintencionados de una computadora,Llevar a cabo acciones para eliminar virus informáticos y otro tipo de programas malintencionados de un ordenador.,http://data.europa.eu/esco/skill/S5.2.2 | http://data.europa.eu/esco/skill/df329d70-87b0-466b-a214-3431f36e2a5e,proteger dispositivos de tic | proteger dispositivos de Tic
KnowledgeSkillCompetence,http://data.europa.eu/esco/skill/83e6510b-ffeb-4aec-959c-4265fd0ff7b7,skill/competence,transversal,prestar atención al detalle,prestar atención a los detalles,"Cumplir una tarea preocupándose de todas las áreas implicadas, independientemente de su tamaño.",http://data.europa.eu/esco/skill/a90b12b6-248d-487f-be36-c44bd9a032e5 | http://data.europa.eu/esco/skill/A1.2.0,actitudes | prestar atención al detalle
KnowledgeSkillCompetence,http://data.europa.eu/esco/skill/943d07ec-fb75-4bb5-bc07-20451a2b66e4,skill/competence,transversal,identificar oportunidades,determinar oportunidades,Observar más allá del panorama actual y visualizar lo que el futuro puede aportar a las personas con iniciativa.,http://data.europa.eu/esco/skill/a06a5a3f-07a9-40b3-bb7b-d93a960b1be5 | http://data.europa.eu/esco/skill/S4.1.1,pensamiento | identificar oportunidades
KnowledgeSkillCompetence,http://data.europa.eu/esco/skill/95a41cf5-4037-4c96-91a8-c34b41637224,skill/competence,transversal,apoyar a compañeros de trabajo,ayudar a los compañeros de trabajo | ayudar a los compañeros | apoyar a los compañeros | dar apoyo a los compañeros de trabajo,Guiar o ayudar a personas con menos experiencia o menos conocimientos en el trabajo.,http://data.europa.eu/esco/skill/8f18f987-33e2-4228-9efb-65de25d03330 | http://data.europa.eu/esco/skill/S1.8.6,interacción social | proporcionar asistencia y apoyo a los compañeros de trabajo
KnowledgeSkillCompetence,http://data.europa.eu/esco/skill/97c1895a-a890-47da-abfc-79dc272add2e,skill/competence,transversal,utilizar convenciones en línea sobre etiqueta de la red,,Aplicar normas de comportamiento y conocimientos durante el uso de tecnologías digitales y mientras interactúa en entornos digitales. Adaptar las estrategias de comunicación al público específico y ser consciente de la diversidad cultural y generacional en entornos digitales.,http://data.europa.eu/esco/skill/A2.2.0 | http://data.europa.eu/esco/skill/574257ea-7b64-4100-b7b6-e27c233fe143,tener buenos modales | comunicación y colaboración digitales
KnowledgeSkillCompetence,http://data.europa.eu/esco/skill/9af1bd12-01bd-4d6a-947b-69e64f23150a,skill/competence,transversal,procesar información cualitativa,,"Compilar, codificar, clasificar, calcular, tabular, auditar o verificar información cualitativa.",http://data.europa.eu/esco/skill/S2.7.0 | http://data.europa.eu/esco/skill/a06a5a3f-07a9-40b3-bb7b-d93a960b1be5,analizar y evaluar información y datos | pensamiento
KnowledgeSkillCompetence,http://data.europa.eu/esco/skill/9bf266a6-188b-4d17-a22f-2f266d76832b,skill/competence,transversal,demostrar voluntad de aprender,,Mostrar una actitud positiva hacia los nuevos y complejos desafíos que solo pueden satisfacerse a través del aprendizaje permanente.,http://data.europa.eu/esco/skill/A1.8.0 | http://data.europa.eu/esco/skill/a90b12b6-248d-487f-be36-c44bd9a032e5,mostrar voluntad de aprender | actitudes
KnowledgeSkillCompetence,http://data.europa.eu/esco/skill/9d75743b-317a-4bc4-b93f-c72e3ceba377,skill/competence,transversal,demostrar consideración,mostrar consideración,Actuar de un modo comprensivo y de apoyo que sea sensible a las necesidades y sentimientos de los demás.,http://data.europa.eu/esco/skill/A2.1.0 | http://data.europa.eu/esco/skill/25a26ff6-af18-40b0-b2e2-cb58471015eb,tener consideración | valores
KnowledgeSkillCompetence,http://data.europa.eu/esco/skill/a12057b4-6d11-4a12-ab8e-15a028ef0a6d,skill/competence,transversal,interactuar mediante tecnologías digitales,interactuar utilizando tecnologías digitales,Interactuar a través de una serie de tecnologías digitales y comprenda los medios de comunicación digital apropiados para un contexto dado.,http://data.europa.eu/esco/skill/S5.6.1 | http://data.europa.eu/esco/skill/574257ea-7b64-4100-b7b6-e27c233fe143,utilizar herramientas digitales para la colaboración y la productividad | comunicación y colaboración digitales
KnowledgeSkillCompetence,http://data.europa.eu/esco/skill/a311ab20-75df-4aff-8016-3142c5659d30,skill/competence,transversal,aceptar la crítica constructiva,,Reaccionar a las opiniones válidas y fundamentadas sobre el trabajo de una manera positiva.,http://data.europa.eu/esco/skill/S1.8.4 | http://data.europa.eu/esco/skill/8f18f987-33e2-4228-9efb-65de25d03330,aceptar comentarios de valoración | interacción social
KnowledgeSkillCompetence,http://data.europa.eu/esco/skill/a44c0ed6-68b1-457a-9c6d-ea8487bdfeb2,skill/competence,transversal,utilizar estrategias de aprendizaje,,"Utilizar diferentes canales de percepción, estilos de aprendizaje, estrategias y métodos para adquirir conocimientos, pericia, capacidades y competencias.",http://data.europa.eu/esco/skill/S2.0.0 | http://data.europa.eu/esco/skill/a06a5a3f-07a9-40b3-bb7b-d93a960b1be5,competencias en materia de información | pensamiento
KnowledgeSkillCompetence,http://data.europa.eu/esco/skill/a4b2a278-2123-4450-8b43-be01c4f341da,skill/competence,transversal,proteger la privacidad y la identidad en internet,proteger la intimidad y la identidad en internet,"Aplicar métodos y procedimientos para asegurar la información privada en espacios digitales limitando el intercambio de datos personales cuando sea posible, mediante el uso de contraseñas y configuraciones en redes sociales, aplicaciones de dispositivos móviles, almacenamiento en la nube y otros lugares, mientras se garantiza la privacidad de otras personas; protegerse del fraude en línea, las amenazas y el ciberacoso.",http://data.europa.eu/esco/skill/426ceaba-6867-481c-bb6b-aee3933da7d2 | http://data.europa.eu/esco/skill/S4.2.1,seguridad de las tecnologías de la información y de las comunicaciones | dirigir actividades operativas
KnowledgeSkillCompetence,http://data.europa.eu/esco/skill/a5826fe3-8df6-4fa8-adad-b7116864588f,skill/competence,transversal,comunicar información matemática,,"Utilizar símbolos matemáticos, lenguajes y herramientas para presentar información, ideas y procesos.",http://data.europa.eu/esco/skill/S1.4.2 | http://data.europa.eu/esco/skill/b99e9027-8263-4630-a8f2-d7f400b4149e,presentar investigación o información técnica | conocimientos básicos de cálculo y matemáticas
KnowledgeSkillCompetence,http://data.europa.eu/esco/skill/a91732ce-988e-4105-9570-f425c6ffdc82,knowledge,transversal,derechos de autor y licencias relacionados con el contenido digital,derechos de autor y licencias relacionados con los contenidos digitales | derechos de autor y licencias relacionados con el contenido electrónico | derechos de autor y licencias relacionados con los contenidos electrónicos,"Comprender cómo se aplican los derechos de autor y las licencias a los datos, la información y los contenidos digitales.",http://data.europa.eu/esco/isced-f/0211 | http://data.europa.eu/esco/skill/f5369f2f-e52b-43d8-8d31-79a6c11188d8,técnicas audiovisuales y producción para medios de comunicación | creación de contenidos digitales
KnowledgeSkillCompetence,http://data.europa.eu/esco/skill/a992f345-7c06-4982-8fc9-5fab55e316af,skill/competence,transversal,seguir prácticas laborales ecológicamente sostenibles,,"Aplicar principios, políticas y reglamentos destinados a la sostenibilidad medioambiental en el lugar de trabajo.",http://data.europa.eu/esco/skill/6e1ac650-52a8-40b8-b1fc-fc5e582882f3 | http://data.europa.eu/esco/skill/S3.3.2,salud y seguridad | cumplir las leyes y normas sobre protección medioambiental
KnowledgeSkillCompetence,http://data.europa.eu/esco/skill/ab75d510-ac75-482d-b671-bb3bad741f07,skill/competence,transversal,realizar mediciones relacionadas con el trabajo,,"Utilizar unidades, herramientas y equipos adecuados para realizar cálculos de longitud, área, volumen, peso, tiempo, formas geométricas y bocetos.",http://data.europa.eu/esco/skill/b99e9027-8263-4630-a8f2-d7f400b4149e | http://data.europa.eu/esco/skill/S2.5.0,conocimientos básicos de cálculo y matemáticas | medir propiedades físicas
KnowledgeSkillCompetence,http://data.europa.eu/esco/skill/abf982c1-6b59-4572-a38c-97d3a6869af4,skill/competence,transversal,utilizar robots personales para recibir apoyo práctico,,"Utilizar máquinas semiautónomas o autónomas que realicen automáticamente acciones complejas mientras son guiadas por software digital o electrónico, como los vehículos sin conductor, los drones y otras máquinas.",http://data.europa.eu/esco/skill/S8.0.0 | http://data.europa.eu/esco/skill/7e5147d1-60b1-4a68-804b-1f5cb0396b91,trabajar con maquinaria y equipo especializado | resolución de problemas con herramientas digitales
KnowledgeSkillCompetence,http://data.europa.eu/esco/skill/acf0a78c-f4e3-4bd9-a5cc-9cf4791b3b95,skill/competence,transversal,instalar una red privada virtual,instalar una RPV | instalar una VPN | desarrollar una red privada virtual | crear una red privada virtual | establecer una red privada virtual,"Crear una conexión cifrada entre redes privadas, como las diferentes redes locales de una empresa, a través de Internet para garantizar que solo los usuarios autorizados puedan acceder a ella y que los datos no puedan ser interceptados.",http://data.europa.eu/esco/skill/df329d70-87b0-466b-a214-3431f36e2a5e | http://data.europa.eu/esco/skill/S5.2.2,proteger dispositivos de Tic | proteger dispositivos de tic
KnowledgeSkillCompetence,http://data.europa.eu/esco/skill/af6db8f7-aeb8-40e7-97e1-22110ce6c7c6,skill/competence,transversal,utilizar Bing,,"Identificar la información digital a través de motores de búsqueda Bing, juzgando su pertinencia y finalidad.",http://data.europa.eu/esco/skill/S5.5.1 | http://data.europa.eu/esco/skill/698be2d3-8768-422d-a2d3-1cb701816089,"navegar, buscar y filtrar datos digitales | buscar información en línea"
KnowledgeSkillCompetence,http://data.europa.eu/esco/skill/b2f925ed-3ebd-4f78-b98e-d5d4678e83b5,skill/competence,transversal,respetar el código ético de conducta,,"Llevar a cabo actividades en el lugar de trabajo con arreglo a principios aceptados de correcto e incorrecto, incluida la equidad, la transparencia y la imparcialidad de las prácticas laborales y la conducta con respecto a otras personas.",http://data.europa.eu/esco/skill/25a26ff6-af18-40b0-b2e2-cb58471015eb | http://data.europa.eu/esco/skill/A2.3.0,valores | respetar el código ético de conducta
KnowledgeSkillCompetence,http://data.europa.eu/esco/skill/b769f524-0f25-44d7-8538-5c46710a040e,skill/competence,transversal,gestionar documentos digitales,,"Gestionar diversos formatos y archivos de datos mediante la denominación, la publicación, la transformación y el intercambio de archivos y documentos y la transformación de los formatos de los ficheros.",http://data.europa.eu/esco/skill/S5.5.2 | http://data.europa.eu/esco/skill/4d97e3c3-f335-47cc-a4ee-0d779fd42222,"gestionar y analizar datos digitales | gestionar datos, información y contenido digitales"
KnowledgeSkillCompetence,http://data.europa.eu/esco/skill/bb2b4485-2bad-402f-8517-44bf7d9afff4,skill/competence,transversal,instalar software antivirus,instalar programas antivirus,"Descargar, instalar y actualizar software para prevenir, detectar y eliminar software malicioso, como los virus informáticos.",http://data.europa.eu/esco/skill/df329d70-87b0-466b-a214-3431f36e2a5e | http://data.europa.eu/esco/skill/S5.2.2,proteger dispositivos de Tic | proteger dispositivos de tic
KnowledgeSkillCompetence,http://data.europa.eu/esco/skill/bc0b0b5d-f6be-405a-b224-b6902a4dbe97,skill/competence,transversal,gestionar la identidad digital,gestionar la identidad 2.0,"Crear y gestionar una o varias identidades digitales, ser capaz de proteger su propia reputación y tratar los datos que produce uno mismo  a través de varias herramientas, entornos y servicios digitales.",http://data.europa.eu/esco/skill/S3.3.5 | http://data.europa.eu/esco/skill/574257ea-7b64-4100-b7b6-e27c233fe143,mantener y hacer respetar la seguridad física | comunicación y colaboración digitales
KnowledgeSkillCompetence,http://data.europa.eu/esco/skill/be6ab363-3de1-427f-a8ef-85d5b0250822,skill/competence,transversal,informar de hechos,transmitir información | transmitir información fáctica | transmitir información factual,Transmitir información o relate eventos oralmente.,http://data.europa.eu/esco/skill/S1.4.1 | http://data.europa.eu/esco/skill/8f18f987-33e2-4228-9efb-65de25d03330,presentar información general | interacción social
KnowledgeSkillCompetence,http://data.europa.eu/esco/skill/c10d5d87-36cf-42f5-8a12-e560fb5f4af8,skill/competence,transversal,demostrar competencias interculturales,,"Comprender y respetar a las personas que se perciben con afinidades culturales distintas, y reaccionar ante ellas con eficacia y respeto.",http://data.europa.eu/esco/skill/A2.1.0 | http://data.europa.eu/esco/skill/8f18f987-33e2-4228-9efb-65de25d03330,tener consideración | interacción social
KnowledgeSkillCompetence,http://data.europa.eu/esco/skill/c29aa9d2-4da8-4bdd-831c-8d4a2fb51730,skill/competence,transversal,trabajar de manera independiente,,"Desarrollar sus propias formas de hacer las cosas, motivándose con escasa o nula supervisión, y dependiendo de sí mismo para alcanzar sus objetivos.",http://data.europa.eu/esco/skill/A1.16.0 | http://data.europa.eu/esco/skill/a90b12b6-248d-487f-be36-c44bd9a032e5,trabajar de manera independiente | actitudes
KnowledgeSkillCompetence,http://data.europa.eu/esco/skill/c2cbbccf-4ffd-4626-86e7-505b39c872a0,skill/competence,transversal,instalar protección contra el correo electrónico basura,instalar la protección contra el correo electrónico no deseado,Instalar y configurar software que apoye a los usuarios de correo electrónico a filtrar mensajes que contengan programas maliciosos o que no se hayan solicitado.,http://data.europa.eu/esco/skill/S5.2.2 | http://data.europa.eu/esco/skill/df329d70-87b0-466b-a214-3431f36e2a5e,proteger dispositivos de tic | proteger dispositivos de Tic
KnowledgeSkillCompetence,http://data.europa.eu/esco/skill/c4ba12d1-4698-42fa-8abb-789462ea2586,skill/competence,transversal,proteger el medio ambiente frente al impacto de las tecnologías digitales,proteger el entorno frente al impacto de las tecnologías digitales | proteger el medio ambiente ante el impacto de las tecnologías digitales,Ser consciente del impacto medioambiental de las tecnologías digitales y su uso.,http://data.europa.eu/esco/skill/S3.3.2 | http://data.europa.eu/esco/skill/426ceaba-6867-481c-bb6b-aee3933da7d2,cumplir las leyes y normas sobre protección medioambiental | seguridad de las tecnologías de la información y de las comunicaciones
KnowledgeSkillCompetence,http://data.europa.eu/esco/skill/c624c6a3-b0ba-4a31-a296-0d433fe47e41,skill/competence,transversal,pensar de manera creativa,,Pensar en nuevas ideas o combinar las ya existentes para idear soluciones innovadoras y novedosas.,http://data.europa.eu/esco/skill/S1.0.0 | http://data.europa.eu/esco/skill/a06a5a3f-07a9-40b3-bb7b-d93a960b1be5,"comunicación, colaboración y creatividad | pensamiento"
KnowledgeSkillCompetence,http://data.europa.eu/esco/skill/d1ed5b3a-cab5-4c5d-baf8-0214998b58fb,skill/competence,transversal,proteger la salud y el bienestar mediante tecnologías digitales,,"Ser capaz de evitar riesgos para la salud y amenazas para el bienestar físico y psicológico mediante el uso de tecnologías digitales. Ser capaz de protegerse a sí mismo y a otras personas frente a posibles peligros en el entorno digital (por ejemplo, el ciberacoso). Conocer las tecnologías digitales para el bienestar social y la inclusión social.",http://data.europa.eu/esco/skill/426ceaba-6867-481c-bb6b-aee3933da7d2 | http://data.europa.eu/esco/skill/S3.3.1,seguridad de las tecnologías de la información y de las comunicaciones | cumplir los procedimientos de salud y seguridad
KnowledgeSkillCompetence,http://data.europa.eu/esco/skill/d2d9051a-10e1-41c5-9cfb-bbdc58016176,skill/competence,transversal,aplicar las normas de seguridad en el ámbito laboral,,"Aplicar principios, políticas y reglamentos institucionales destinados a garantizar un lugar de trabajo seguro para todos los empleados.",http://data.europa.eu/esco/skill/6e1ac650-52a8-40b8-b1fc-fc5e582882f3 | http://data.europa.eu/esco/skill/S3.3.1,salud y seguridad | cumplir los procedimientos de salud y seguridad
KnowledgeSkillCompetence,http://data.europa.eu/esco/skill/d62d2b4c-a6f8-439e-8a1b-4f29ab5f2c47,skill/competence,transversal,decidir,tomar decisiones,Elegir entre varias posibilidades alternativas.,http://data.europa.eu/esco/skill/a06a5a3f-07a9-40b3-bb7b-d93a960b1be5 | http://data.europa.eu/esco/skill/S4.9.0,pensamiento | tomar decisiones
KnowledgeSkillCompetence,http://data.europa.eu/esco/skill/d9013e0e-e937-43d5-ab71-0e917ee882b8,skill/competence,transversal,gestionar el tiempo,,"Planificar la secuencia temporal de acontecimientos, programas y actividades, así como el trabajo de los demás.",http://data.europa.eu/esco/skill/S4.2.2 | http://data.europa.eu/esco/skill/a06a5a3f-07a9-40b3-bb7b-d93a960b1be5,planificar y programar actos y actividades | pensamiento
KnowledgeSkillCompetence,http://data.europa.eu/esco/skill/d908a818-70ef-419e-9d60-8f459114cb2f,skill/competence,transversal,utilizar servicios electrónicos,,"Utilizar servicios públicos y privados en línea, como el comercio electrónico, la administración electrónica, la banca electrónica y los servicios de salud electrónica.",http://data.europa.eu/esco/skill/S5.0.0 | http://data.europa.eu/esco/skill/574257ea-7b64-4100-b7b6-e27c233fe143,trabajar con ordenadores | comunicación y colaboración digitales
KnowledgeSkillCompetence,http://data.europa.eu/esco/skill/db77825e-0f3e-47d0-abdb-356794484272,skill/competence,transversal,utilizar herramientas y equipos matemáticos,,Utilizar un dispositivo electrónico portátil para llevar a cabo operaciones tanto básicas como complejas de aritmética.,http://data.europa.eu/esco/skill/b99e9027-8263-4630-a8f2-d7f400b4149e | http://data.europa.eu/esco/skill/S2.6.1,conocimientos básicos de cálculo y matemáticas | realizar cálculos
KnowledgeSkillCompetence,http://data.europa.eu/esco/skill/df329d70-87b0-466b-a214-3431f36e2a5e,skill/competence,transversal,proteger dispositivos de Tic,proteger dispositivos de TIC | proteger dispositivos informáticos,"Proteger los dispositivos y  el contenido digital, y comprender los riesgos y las amenazas en entornos digitales. Conocer las medidas de seguridad y protección y tener debida consideración de la fiabilidad y la privacidad. Utilizar herramientas y métodos que permitan maximizar la seguridad de los dispositivos y la información de las TIC mediante el control del acceso, como contraseñas, firmas digitales, biometría y sistemas de protección como cortafuegos, antivirus y filtros antispam",http://data.europa.eu/esco/skill/S5.2.2 | http://data.europa.eu/esco/skill/426ceaba-6867-481c-bb6b-aee3933da7d2,proteger dispositivos de tic | seguridad de las tecnologías de la información y de las comunicaciones
KnowledgeSkillCompetence,http://data.europa.eu/esco/skill/e2d44a9b-f28c-489e-9861-b654b5ded507,skill/competence,transversal,motivar a los demás,motivar a otras personas,Dirigir el comportamiento de otras personas proporcionándoles una razón convincente para la acción.,http://data.europa.eu/esco/skill/S4.5.0 | http://data.europa.eu/esco/skill/8f18f987-33e2-4228-9efb-65de25d03330,guiar y motivar | interacción social
KnowledgeSkillCompetence,http://data.europa.eu/esco/skill/e439742d-558d-4f52-885e-afdc740b48cf,skill/competence,transversal,"navegar, buscar y filtrar datos, información y contenido digitales","navegar, buscar y filtrar datos, información y contenidos electrónicos | navegar, buscar y filtrar datos, información y contenido electrónicos | navegar, buscar y filtrar datos, información y contenidos digitales","Articular las necesidades de información, buscar datos, información y contenido en entornos digitales, acceder y navegue a través de ellos. Crear y actualizar estrategias personales de búsqueda.",http://data.europa.eu/esco/skill/S5.5.1 | http://data.europa.eu/esco/skill/629685b8-5f9e-4522-8cff-b3e2c4ec625a,"navegar, buscar y filtrar datos digitales | tratamiento digital de los datos"
KnowledgeSkillCompetence,http://data.europa.eu/esco/skill/e5b5053e-0ef6-4c4e-a3f2-42f955f4322c,skill/competence,transversal,instalar un cortafuegos,,"Descargar, instalar y actualizar un sistema de seguridad de la red concebido para evitar el acceso no autorizado a una red privada.",http://data.europa.eu/esco/skill/df329d70-87b0-466b-a214-3431f36e2a5e | http://data.europa.eu/esco/skill/S5.2.2,proteger dispositivos de Tic | proteger dispositivos de tic
KnowledgeSkillCompetence,http://data.europa.eu/esco/skill/e7844840-0fc2-4e79-a0f7-384b4dbc88f6,skill/competence,transversal,utilizar Swoogle,,"Identificar la información digital a través de motores de búsqueda Swoogle, un motor de búsqueda de ontologías semánticas. 
 ",http://data.europa.eu/esco/skill/S5.5.1 | http://data.europa.eu/esco/skill/698be2d3-8768-422d-a2d3-1cb701816089,"navegar, buscar y filtrar datos digitales | buscar información en línea"
KnowledgeSkillCompetence,http://data.europa.eu/esco/skill/ec4b8a2b-c20c-4c0f-bef0-fcc1f5f42c40,skill/competence,transversal,utilizar periféricos de TIC,utilizar los equipos periféricos de las TIC,"Utilizar las piezas o los componentes físicos de los equipos de tecnología de la información, como el monitor, el ratón, el teclado, dispositivos de almacenamiento, impresoras o escáneres.",http://data.europa.eu/esco/skill/7e5147d1-60b1-4a68-804b-1f5cb0396b91 | http://data.europa.eu/esco/skill/S5.0.0,resolución de problemas con herramientas digitales | trabajar con ordenadores
KnowledgeSkillCompetence,http://data.europa.eu/esco/skill/f60b0a50-2e7b-46f8-9b9c-2809b10991f9,skill/competence,transversal,perseverar,ser perseverante,Cumplir con las tareas a pesar de la fatiga o la frustración.,http://data.europa.eu/esco/skill/A1.14.0 | http://data.europa.eu/esco/skill/a90b12b6-248d-487f-be36-c44bd9a032e5,perseverar | actitudes
KnowledgeSkillCompetence,http://data.europa.eu/esco/skill/fa46a48d-9cb9-422d-afab-1047654dbcdd,skill/competence,transversal,memorizar información,,"Almacenar información como, por ejemplo, palabras, números, imágenes y procedimientos para su posterior recuperación.",http://data.europa.eu/esco/skill/S2.4.0 | http://data.europa.eu/esco/skill/a06a5a3f-07a9-40b3-bb7b-d93a960b1be5,procesar información | pensamiento
KnowledgeSkillCompetence,http://data.europa.eu/esco/skill/fba28975-4544-4d37-8971-9bd72534018c,skill/competence,transversal,cuidar la higiene,,"Asumir la responsabilidad personal de garantizar un entorno de trabajo seguro, incluida la higiene personal.",http://data.europa.eu/esco/skill/a90b12b6-248d-487f-be36-c44bd9a032e5 | http://data.europa.eu/esco/skill/A1.3.0,actitudes | cuidar la higiene
KnowledgeSkillCompetence,http://data.europa.eu/esco/skill/fdf15b35-9028-4acb-bfd2-43f00a015cd9,skill/competence,transversal,utilizar software de organización personal,,"Utilizar herramientas de software, como calendarios, listas de tareas, seguimiento temporal, listas de contactos, para ayudar en la gestión de la eficiencia personal.",http://data.europa.eu/esco/skill/42fcf80d-7b45-40f3-bd2f-5411c4c0dfa0 | http://data.europa.eu/esco/skill/S5.6.1,detectar las necesidades y las respuestas tecnológicas | utilizar herramientas digitales para la colaboración y la productividad
